\relax 
\providecommand\hyper@newdestlabel[2]{}
\bbl@beforestart
\providecommand\HyperFirstAtBeginDocument{\AtBeginDocument}
\HyperFirstAtBeginDocument{\ifx\hyper@anchor\@undefined
\global\let\oldcontentsline\contentsline
\gdef\contentsline#1#2#3#4{\oldcontentsline{#1}{#2}{#3}}
\global\let\oldnewlabel\newlabel
\gdef\newlabel#1#2{\newlabelxx{#1}#2}
\gdef\newlabelxx#1#2#3#4#5#6{\oldnewlabel{#1}{{#2}{#3}}}
\AtEndDocument{\ifx\hyper@anchor\@undefined
\let\contentsline\oldcontentsline
\let\newlabel\oldnewlabel
\fi}
\fi}
\global\let\hyper@last\relax 
\gdef\HyperFirstAtBeginDocument#1{#1}
\providecommand\HyField@AuxAddToFields[1]{}
\providecommand\HyField@AuxAddToCoFields[2]{}
\babel@aux{romanian}{}
\babel@aux{english}{}
\@writefile{toc}{\contentsline {chapter}{\numberline {1}General Presentation}{1}{chapter.1}\protected@file@percent }
\@writefile{lof}{\addvspace {10\p@ }}
\@writefile{lot}{\addvspace {10\p@ }}
\@writefile{toc}{\contentsline {section}{\numberline {1.1}Working Team}{1}{section.1.1}\protected@file@percent }
\@writefile{toc}{\contentsline {chapter}{\numberline {2}Design of Module \textit  {Threads}}{2}{chapter.2}\protected@file@percent }
\@writefile{lof}{\addvspace {10\p@ }}
\@writefile{lot}{\addvspace {10\p@ }}
\@writefile{toc}{\contentsline {section}{\numberline {2.1}Assignment Requirement}{2}{section.2.1}\protected@file@percent }
\@writefile{toc}{\contentsline {subsection}{\numberline {2.1.1}Initial Functionality}{2}{subsection.2.1.1}\protected@file@percent }
\@writefile{toc}{\contentsline {subsection}{\numberline {2.1.2}Requirements}{3}{subsection.2.1.2}\protected@file@percent }
\@writefile{toc}{\contentsline {subsection}{\numberline {2.1.3}Basic Use Cases}{4}{subsection.2.1.3}\protected@file@percent }
\@writefile{lot}{\contentsline {table}{\numberline {2.1}{\ignorespaces Priority Scheduler Example}}{4}{table.2.1}\protected@file@percent }
\newlabel{table:1}{{2.1}{4}{Priority Scheduler Example}{table.2.1}{}}
\@writefile{lot}{\contentsline {table}{\numberline {2.2}{\ignorespaces Thread scheduling order}}{4}{table.2.2}\protected@file@percent }
\newlabel{table:2}{{2.2}{4}{Thread scheduling order}{table.2.2}{}}
\@writefile{toc}{\contentsline {section}{\numberline {2.2}Design Description}{5}{section.2.2}\protected@file@percent }
\@writefile{toc}{\contentsline {subsection}{\numberline {2.2.1}Needed Data Structures and Functions}{5}{subsection.2.2.1}\protected@file@percent }
\@writefile{toc}{\contentsline {subsection}{\numberline {2.2.2}Detailed Functionality}{13}{subsection.2.2.2}\protected@file@percent }
\@writefile{toc}{\contentsline {subsection}{\numberline {2.2.3}Explanation of Your Design Decisions}{15}{subsection.2.2.3}\protected@file@percent }
\@writefile{toc}{\contentsline {section}{\numberline {2.3}Tests}{15}{section.2.3}\protected@file@percent }
\@writefile{toc}{\contentsline {chapter}{\numberline {3}Design of Module \textit  {Userprog}}{16}{chapter.3}\protected@file@percent }
\@writefile{lof}{\addvspace {10\p@ }}
\@writefile{lot}{\addvspace {10\p@ }}
\@writefile{toc}{\contentsline {section}{\numberline {3.1}Assignment Requirements}{16}{section.3.1}\protected@file@percent }
\@writefile{toc}{\contentsline {subsection}{\numberline {3.1.1}Initial Functionality}{16}{subsection.3.1.1}\protected@file@percent }
\@writefile{toc}{\contentsline {subsection}{\numberline {3.1.2}Requirements}{16}{subsection.3.1.2}\protected@file@percent }
\@writefile{toc}{\contentsline {subsection}{\numberline {3.1.3}Basic Use Cases}{17}{subsection.3.1.3}\protected@file@percent }
\@writefile{toc}{\contentsline {section}{\numberline {3.2}Design Description}{17}{section.3.2}\protected@file@percent }
\@writefile{toc}{\contentsline {subsection}{\numberline {3.2.1}Needed Data Structures and Functions}{17}{subsection.3.2.1}\protected@file@percent }
\@writefile{toc}{\contentsline {subsection}{\numberline {3.2.2}Detailed Functionality}{21}{subsection.3.2.2}\protected@file@percent }
\@writefile{toc}{\contentsline {subsection}{\numberline {3.2.3}Explanation of Your Design Decisions}{25}{subsection.3.2.3}\protected@file@percent }
\@writefile{toc}{\contentsline {section}{\numberline {3.3}Tests}{25}{section.3.3}\protected@file@percent }
\@writefile{toc}{\contentsline {section}{\numberline {3.4}Observations}{25}{section.3.4}\protected@file@percent }
