\BOOKMARK [0][-]{chapter.1}{\376\377\000G\000e\000n\000e\000r\000a\000l\000\040\000P\000r\000e\000s\000e\000n\000t\000a\000t\000i\000o\000n}{}% 1
\BOOKMARK [1][-]{section.1.1}{\376\377\000W\000o\000r\000k\000i\000n\000g\000\040\000T\000e\000a\000m}{chapter.1}% 2
\BOOKMARK [0][-]{chapter.2}{\376\377\000D\000e\000s\000i\000g\000n\000\040\000o\000f\000\040\000M\000o\000d\000u\000l\000e\000\040\000T\000h\000r\000e\000a\000d\000s}{}% 3
\BOOKMARK [1][-]{section.2.1}{\376\377\000A\000s\000s\000i\000g\000n\000m\000e\000n\000t\000\040\000R\000e\000q\000u\000i\000r\000e\000m\000e\000n\000t}{chapter.2}% 4
\BOOKMARK [2][-]{subsection.2.1.1}{\376\377\000I\000n\000i\000t\000i\000a\000l\000\040\000F\000u\000n\000c\000t\000i\000o\000n\000a\000l\000i\000t\000y}{section.2.1}% 5
\BOOKMARK [2][-]{subsection.2.1.2}{\376\377\000R\000e\000q\000u\000i\000r\000e\000m\000e\000n\000t\000s}{section.2.1}% 6
\BOOKMARK [2][-]{subsection.2.1.3}{\376\377\000B\000a\000s\000i\000c\000\040\000U\000s\000e\000\040\000C\000a\000s\000e\000s}{section.2.1}% 7
\BOOKMARK [1][-]{section.2.2}{\376\377\000D\000e\000s\000i\000g\000n\000\040\000D\000e\000s\000c\000r\000i\000p\000t\000i\000o\000n}{chapter.2}% 8
\BOOKMARK [2][-]{subsection.2.2.1}{\376\377\000N\000e\000e\000d\000e\000d\000\040\000D\000a\000t\000a\000\040\000S\000t\000r\000u\000c\000t\000u\000r\000e\000s\000\040\000a\000n\000d\000\040\000F\000u\000n\000c\000t\000i\000o\000n\000s}{section.2.2}% 9
\BOOKMARK [2][-]{subsection.2.2.2}{\376\377\000D\000e\000t\000a\000i\000l\000e\000d\000\040\000F\000u\000n\000c\000t\000i\000o\000n\000a\000l\000i\000t\000y}{section.2.2}% 10
\BOOKMARK [2][-]{subsection.2.2.3}{\376\377\000E\000x\000p\000l\000a\000n\000a\000t\000i\000o\000n\000\040\000o\000f\000\040\000Y\000o\000u\000r\000\040\000D\000e\000s\000i\000g\000n\000\040\000D\000e\000c\000i\000s\000i\000o\000n\000s}{section.2.2}% 11
\BOOKMARK [1][-]{section.2.3}{\376\377\000T\000e\000s\000t\000s}{chapter.2}% 12
\BOOKMARK [0][-]{chapter.3}{\376\377\000D\000e\000s\000i\000g\000n\000\040\000o\000f\000\040\000M\000o\000d\000u\000l\000e\000\040\000U\000s\000e\000r\000p\000r\000o\000g}{}% 13
\BOOKMARK [1][-]{section.3.1}{\376\377\000A\000s\000s\000i\000g\000n\000m\000e\000n\000t\000\040\000R\000e\000q\000u\000i\000r\000e\000m\000e\000n\000t\000s}{chapter.3}% 14
\BOOKMARK [2][-]{subsection.3.1.1}{\376\377\000I\000n\000i\000t\000i\000a\000l\000\040\000F\000u\000n\000c\000t\000i\000o\000n\000a\000l\000i\000t\000y}{section.3.1}% 15
\BOOKMARK [2][-]{subsection.3.1.2}{\376\377\000R\000e\000q\000u\000i\000r\000e\000m\000e\000n\000t\000s}{section.3.1}% 16
\BOOKMARK [2][-]{subsection.3.1.3}{\376\377\000B\000a\000s\000i\000c\000\040\000U\000s\000e\000\040\000C\000a\000s\000e\000s}{section.3.1}% 17
\BOOKMARK [1][-]{section.3.2}{\376\377\000D\000e\000s\000i\000g\000n\000\040\000D\000e\000s\000c\000r\000i\000p\000t\000i\000o\000n}{chapter.3}% 18
\BOOKMARK [2][-]{subsection.3.2.1}{\376\377\000N\000e\000e\000d\000e\000d\000\040\000D\000a\000t\000a\000\040\000S\000t\000r\000u\000c\000t\000u\000r\000e\000s\000\040\000a\000n\000d\000\040\000F\000u\000n\000c\000t\000i\000o\000n\000s}{section.3.2}% 19
\BOOKMARK [2][-]{subsection.3.2.2}{\376\377\000D\000e\000t\000a\000i\000l\000e\000d\000\040\000F\000u\000n\000c\000t\000i\000o\000n\000a\000l\000i\000t\000y}{section.3.2}% 20
\BOOKMARK [2][-]{subsection.3.2.3}{\376\377\000E\000x\000p\000l\000a\000n\000a\000t\000i\000o\000n\000\040\000o\000f\000\040\000Y\000o\000u\000r\000\040\000D\000e\000s\000i\000g\000n\000\040\000D\000e\000c\000i\000s\000i\000o\000n\000s}{section.3.2}% 21
\BOOKMARK [1][-]{section.3.3}{\376\377\000T\000e\000s\000t\000s}{chapter.3}% 22
\BOOKMARK [1][-]{section.3.4}{\376\377\000O\000b\000s\000e\000r\000v\000a\000t\000i\000o\000n\000s}{chapter.3}% 23
